Running on  compute-gpu-0-0.local
Moved dir, now in:
/home/xzcaprho/project/salt
delphes_ftag
CUDA_VISIBLE_DEVICES:
12
Mon Jul  8 17:00:06 2024       
+---------------------------------------------------------------------------------------+
| NVIDIA-SMI 545.23.08              Driver Version: 545.23.08    CUDA Version: 12.3     |
|-----------------------------------------+----------------------+----------------------+
| GPU  Name                 Persistence-M | Bus-Id        Disp.A | Volatile Uncorr. ECC |
| Fan  Temp   Perf          Pwr:Usage/Cap |         Memory-Usage | GPU-Util  Compute M. |
|                                         |                      |               MIG M. |
|=========================================+======================+======================|
|   0  NVIDIA A100-PCIE-40GB          Off | 00000000:3B:00.0 Off |                   On |
| N/A   51C    P0              66W / 250W |   4903MiB / 40960MiB |     N/A      Default |
|                                         |                      |              Enabled |
+-----------------------------------------+----------------------+----------------------+
|   1  NVIDIA A100-PCIE-40GB          Off | 00000000:AF:00.0 Off |                   On |
| N/A   28C    P0              34W / 250W |     74MiB / 40960MiB |     N/A      Default |
|                                         |                      |              Enabled |
+-----------------------------------------+----------------------+----------------------+
|   2  NVIDIA A100-PCIE-40GB          Off | 00000000:D8:00.0 Off |                   On |
| N/A   30C    P0              36W / 250W |     74MiB / 40960MiB |     N/A      Default |
|                                         |                      |              Enabled |
+-----------------------------------------+----------------------+----------------------+

+---------------------------------------------------------------------------------------+
| MIG devices:                                                                          |
+------------------+--------------------------------+-----------+-----------------------+
| GPU  GI  CI  MIG |                   Memory-Usage |        Vol|      Shared           |
|      ID  ID  Dev |                     BAR1-Usage | SM     Unc| CE ENC DEC OFA JPG    |
|                  |                                |        ECC|                       |
|==================+================================+===========+=======================|
|  0    1   0   0  |            4866MiB / 19968MiB  | 42      0 |  3   0    2    0    0 |
|                  |               2MiB / 32767MiB  |           |                       |
+------------------+--------------------------------+-----------+-----------------------+
|  0    2   0   1  |              37MiB / 19968MiB  | 42      0 |  3   0    2    0    0 |
|                  |               0MiB / 32767MiB  |           |                       |
+------------------+--------------------------------+-----------+-----------------------+
|  1    1   0   0  |              37MiB / 19968MiB  | 42      0 |  3   0    2    0    0 |
|                  |               0MiB / 32767MiB  |           |                       |
+------------------+--------------------------------+-----------+-----------------------+
|  1    2   0   1  |              37MiB / 19968MiB  | 42      0 |  3   0    2    0    0 |
|                  |               0MiB / 32767MiB  |           |                       |
+------------------+--------------------------------+-----------+-----------------------+
|  2    1   0   0  |              37MiB / 19968MiB  | 42      0 |  3   0    2    0    0 |
|                  |               0MiB / 32767MiB  |           |                       |
+------------------+--------------------------------+-----------+-----------------------+
|  2    2   0   1  |              37MiB / 19968MiB  | 42      0 |  3   0    2    0    0 |
|                  |               0MiB / 32767MiB  |           |                       |
+------------------+--------------------------------+-----------+-----------------------+
                                                                                         
+---------------------------------------------------------------------------------------+
| Processes:                                                                            |
|  GPU   GI   CI        PID   Type   Process name                            GPU Memory |
|        ID   ID                                                             Usage      |
|=======================================================================================|
|    0    1    0      46437      C   ...is2/salt/conda/envs/salt/bin/python     4818MiB |
+---------------------------------------------------------------------------------------+
Ntasks

Running training script...
Batchsize: 2000
[rank: 0] Global seed set to 42
CometLogger will be initialized in online mode
/home/xzcaprho/project/salt/conda/envs/salt/lib/python3.10/site-packages/lightning/fabric/plugins/environments/slurm.py:165: PossibleUserWarning: The `srun` command is available on your system but is not used. HINT: If your intention is to run Lightning on SLURM, prepend your python command with `srun` like so: srun python3.10 /home/xzcaprho/project/salt/conda/envs/salt/bin/ ...
  rank_zero_warn(
Using 16bit Automatic Mixed Precision (AMP)
Trainer already configured with model summary callbacks: [<class 'lightning.pytorch.callbacks.model_summary.ModelSummary'>]. Skipping setting a default `ModelSummary` callback.
GPU available: True (cuda), used: True
TPU available: False, using: 0 TPU cores
IPU available: False, using: 0 IPUs
HPU available: False, using: 0 HPUs
/home/xzcaprho/project/salt/conda/envs/salt/lib/python3.10/site-packages/lightning/fabric/plugins/environments/slurm.py:165: PossibleUserWarning: The `srun` command is available on your system but is not used. HINT: If your intention is to run Lightning on SLURM, prepend your python command with `srun` like so: srun python3.10 /home/xzcaprho/project/salt/conda/envs/salt/bin/ ...
  rank_zero_warn(
----------------------------------------------------------------------------------------------------
Created training dataset with 6,330,739 jets
Created validation dataset with 904,391 jets
---------------------------------------------------------------------------------------------------- 

----------------------------------------------------------------------------------------------------
Created output dir /home/xzcaprho/project/salt/MET_stuff/outGNMET_First/gnmet_first_b2000_e40_20240708-T170016
---------------------------------------------------------------------------------------------------- 

COMET ERROR: CUDA_VISIBLE_DEVICES contains value of invalid or unsupported format: MIG-4b65de50-b855-56b6-92d6-30e9958cc634
COMET ERROR: Invalid device identifier. Next identifiers won't be parsed.
COMET INFO: Experiment is live on comet.com https://www.comet.com/rhoenscheid/salt/34cb2f90996f49eb9187987b5e1d621b

LOCAL_RANK: 0 - CUDA_VISIBLE_DEVICES: [MIG-4b65de50-b855-56b6-92d6-30e9958cc634]
Loading `train_dataloader` to estimate number of stepping batches.

  | Name            | Type                   | Params
-----------------------------------------------------------
0 | model           | SaltModel              | 625 K 
1 | model.init_nets | ModuleList             | 52.1 K
2 | model.tasks     | ModuleList             | 26.9 K
3 | model.encoder   | TransformerEncoder     | 546 K 
4 | model.pool_net  | GlobalAttentionPooling | 129   
5 | norm            | InputNorm              | 0     
-----------------------------------------------------------
625 K     Trainable params
0         Non-trainable params
625 K     Total params
2.503     Total estimated model params size (MB)
Sanity Checking: 0it [00:00, ?it/s]COMET INFO: Please wait for metadata to finish uploading (timeout is 3600 seconds)
COMET INFO: Uploading 1 metrics, params and output messages
Traceback (most recent call last):
  File "/home/xzcaprho/project/salt/conda/envs/salt/bin/salt", line 8, in <module>
    sys.exit(main())
  File "/home/xzcaprho/project/salt/salt/main.py", line 16, in main
    SaltCLI(
  File "/home/xzcaprho/project/salt/conda/envs/salt/lib/python3.10/site-packages/lightning/pytorch/cli.py", line 353, in __init__
    self._run_subcommand(self.subcommand)
  File "/home/xzcaprho/project/salt/conda/envs/salt/lib/python3.10/site-packages/lightning/pytorch/cli.py", line 642, in _run_subcommand
    fn(**fn_kwargs)
  File "/home/xzcaprho/project/salt/salt/utils/cli.py", line 74, in fit
    self.trainer.fit(model, **kwargs)
  File "/home/xzcaprho/project/salt/conda/envs/salt/lib/python3.10/site-packages/lightning/pytorch/trainer/trainer.py", line 520, in fit
    call._call_and_handle_interrupt(
  File "/home/xzcaprho/project/salt/conda/envs/salt/lib/python3.10/site-packages/lightning/pytorch/trainer/call.py", line 44, in _call_and_handle_interrupt
    return trainer_fn(*args, **kwargs)
  File "/home/xzcaprho/project/salt/conda/envs/salt/lib/python3.10/site-packages/lightning/pytorch/trainer/trainer.py", line 559, in _fit_impl
    self._run(model, ckpt_path=ckpt_path)
  File "/home/xzcaprho/project/salt/conda/envs/salt/lib/python3.10/site-packages/lightning/pytorch/trainer/trainer.py", line 935, in _run
    results = self._run_stage()
  File "/home/xzcaprho/project/salt/conda/envs/salt/lib/python3.10/site-packages/lightning/pytorch/trainer/trainer.py", line 976, in _run_stage
    self._run_sanity_check()
  File "/home/xzcaprho/project/salt/conda/envs/salt/lib/python3.10/site-packages/lightning/pytorch/trainer/trainer.py", line 1005, in _run_sanity_check
    val_loop.run()
  File "/home/xzcaprho/project/salt/conda/envs/salt/lib/python3.10/site-packages/lightning/pytorch/loops/utilities.py", line 177, in _decorator
    return loop_run(self, *args, **kwargs)
  File "/home/xzcaprho/project/salt/conda/envs/salt/lib/python3.10/site-packages/lightning/pytorch/loops/evaluation_loop.py", line 108, in run
    batch, batch_idx, dataloader_idx = next(data_fetcher)
  File "/home/xzcaprho/project/salt/conda/envs/salt/lib/python3.10/site-packages/lightning/pytorch/loops/fetchers.py", line 136, in __next__
    self._fetch_next_batch(self.dataloader_iter)
  File "/home/xzcaprho/project/salt/conda/envs/salt/lib/python3.10/site-packages/lightning/pytorch/loops/fetchers.py", line 150, in _fetch_next_batch
    batch = next(iterator)
  File "/home/xzcaprho/project/salt/conda/envs/salt/lib/python3.10/site-packages/lightning/pytorch/utilities/combined_loader.py", line 276, in __next__
    out = next(self._iterator)
  File "/home/xzcaprho/project/salt/conda/envs/salt/lib/python3.10/site-packages/lightning/pytorch/utilities/combined_loader.py", line 122, in __next__
    out = next(self.iterators[self._iterator_idx])
  File "/home/xzcaprho/project/salt/conda/envs/salt/lib/python3.10/site-packages/torch/utils/data/dataloader.py", line 633, in __next__
    data = self._next_data()
  File "/home/xzcaprho/project/salt/conda/envs/salt/lib/python3.10/site-packages/torch/utils/data/dataloader.py", line 1345, in _next_data
    return self._process_data(data)
  File "/home/xzcaprho/project/salt/conda/envs/salt/lib/python3.10/site-packages/torch/utils/data/dataloader.py", line 1371, in _process_data
    data.reraise()
  File "/home/xzcaprho/project/salt/conda/envs/salt/lib/python3.10/site-packages/torch/_utils.py", line 644, in reraise
    raise exception
ValueError: Caught ValueError in DataLoader worker process 0.
Original Traceback (most recent call last):
  File "/home/xzcaprho/project/salt/conda/envs/salt/lib/python3.10/site-packages/torch/utils/data/_utils/worker.py", line 308, in _worker_loop
    data = fetcher.fetch(index)
  File "/home/xzcaprho/project/salt/conda/envs/salt/lib/python3.10/site-packages/torch/utils/data/_utils/fetch.py", line 53, in fetch
    data = self.dataset[possibly_batched_index]
  File "/home/xzcaprho/project/salt/salt/data/datasets.py", line 135, in __getitem__
    labels['event_weight'] = self.arrays['event']['weight'] ## Hard-code by Ruben
ValueError: no field of name weight

                                   